{
  "project_info": {
    "project_number": "939980214019",
    "project_id": "foody-bce2e",
    "storage_bucket": "foody-bce2e.appspot.com"
  },
  "client": [
    {
      "client_info": {
        "mobilesdk_app_id": "1:939980214019:android:324e33c6e9e56beecd2336",
        "android_client_info": {
          "package_name": "com.example.authentication"
        }
      },
      "oauth_client": [
        {
          "client_id": "939980214019-cvce8mq3vmhh4lo3mn5r6e0qau9jpp6q.apps.googleusercontent.com",
          "client_type": 3
        }
      ],
      "api_key": [
        {
          "current_key": "AIzaSyAYjBq2l4YWXzIoUHmMUkcyY6eHSYfUk3s"
        }
      ],
      "services": {
        "appinvite_service": {
          "other_platform_oauth_client": [
            {
              "client_id": "939980214019-cvce8mq3vmhh4lo3mn5r6e0qau9jpp6q.apps.googleusercontent.com",
              "client_type": 3
            }
          ]
        }
      }
    }
  ],
  "configuration_version": "1"
}